[gd_scene load_steps=6 format=3 uid="uid://8es6t7b0j81g"]

[ext_resource type="Script" path="res://scripts/main.gd" id="1_bgx8l"]
[ext_resource type="Theme" uid="uid://3xrca8x6tmec" path="res://themes/deafult_theme.tres" id="1_jb2ty"]
[ext_resource type="PackedScene" uid="uid://dmwrp1p30wuau" path="res://scenes/ScoreHolder.tscn" id="2_nrtjv"]
[ext_resource type="PackedScene" uid="uid://dcnuwgi276uet" path="res://scenes/TimerManager.tscn" id="2_tkt11"]
[ext_resource type="PackedScene" uid="uid://c3pi24lxld1j7" path="res://scenes/ChallengeContent.tscn" id="3_iqawy"]

[node name="Main" type="Control"]
layout_mode = 3
anchors_preset = 15
anchor_right = 1.0
anchor_bottom = 1.0
offset_top = 1.0
offset_bottom = 1.0
grow_horizontal = 2
grow_vertical = 2
theme = ExtResource("1_jb2ty")
script = ExtResource("1_bgx8l")

[node name="GeneralContainer" type="VBoxContainer" parent="."]
layout_mode = 1
anchors_preset = 13
anchor_left = 0.5
anchor_right = 0.5
anchor_bottom = 1.0
offset_left = -166.5
offset_right = 166.5
grow_horizontal = 2
grow_vertical = 2
alignment = 1

[node name="InfoLabel" type="Label" parent="GeneralContainer"]
custom_minimum_size = Vector2(0, 200)
layout_mode = 2
text = "Appuyez sur le bouton GO! pour commencer"
horizontal_alignment = 1
vertical_alignment = 1

[node name="ActionButton" type="Button" parent="GeneralContainer"]
layout_mode = 2
text = "GO !"

[node name="ChallengeContainer" type="VBoxContainer" parent="."]
visible = false
custom_minimum_size = Vector2(500, 0)
layout_mode = 1
anchors_preset = 13
anchor_left = 0.5
anchor_right = 0.5
anchor_bottom = 1.0
offset_left = -416.0
offset_right = 416.0
grow_horizontal = 2
grow_vertical = 2
alignment = 1

[node name="TimerManager" parent="ChallengeContainer" instance=ExtResource("2_tkt11")]
layout_mode = 2
text = "60 secondes"
TotalTime = 60

[node name="ChallengeContent" parent="ChallengeContainer" instance=ExtResource("3_iqawy")]
layout_mode = 2
text = "Syllabes:
[center][table=7][cell][color=#156317]  ul  [/color][/cell][cell]  lir  [/cell][cell]  sal  [/cell][cell]  le  [/cell][cell]  bou  [/cell][cell]  var  [/cell][cell]  to  [/cell][cell]  pu  [/cell][cell]  bul  [/cell][cell]  my  [/cell][cell]  ten  [/cell][cell]  ra  [/cell][cell]  sa  [/cell][cell]  mol  [/cell][cell]  bil  [/cell][cell]  fim  [/cell][cell]  or  [/cell][cell]  my  [/cell][cell]  ris  [/cell][cell]  fé  [/cell][cell]  tir  [/cell][cell]  nu  [/cell][cell]  be  [/cell][cell]  ar  [/cell][cell]  is  [/cell][cell]  mu  [/cell][cell]  ne  [/cell][cell]  nil  [/cell][cell]  ni  [/cell][cell]  tir  [/cell][cell]  al  [/cell][cell]  rè  [/cell][cell]  bac  [/cell][cell]  ni  [/cell][cell]  ral  [/cell][cell]  chê  [/cell][cell]  vur  [/cell][cell]  ma  [/cell][cell]  né  [/cell][cell]  pul  [/cell][cell]  si  [/cell][cell]  bê  [/cell][cell]  nè  [/cell][cell]  ni  [/cell][cell]  tal  [/cell][cell]  ma  [/cell][cell]  ba  [/cell][cell]  fol  [/cell][cell]  sol  [/cell][/table][/center]


Mots:
[center][table=7][cell]  vite  [/cell][cell]  sirop  [/cell][cell]  pari  [/cell][cell]  toujours  [/cell][cell]  mare  [/cell][cell]  lilas  [/cell][cell]  gant  [/cell][cell]  bizarre  [/cell][cell]  luc  [/cell][cell]  lis  [/cell][cell]  vélo  [/cell][cell]  papa  [/cell][cell]  bébé  [/cell][cell]  mie  [/cell][cell]  mur  [/cell][cell]  mamie  [/cell][cell]  lira  [/cell][cell]  pari  [/cell][cell]  annulé  [/cell][cell]  papi  [/cell][cell]  mil  [/cell][cell]  remue  [/cell][cell]  pape  [/cell][cell]  tomate  [/cell][cell]  série  [/cell][cell]  léna  [/cell][cell]  mil  [/cell][cell]  mamie  [/cell][/table][/center]


Mots outils:
[center][table=7][cell]  de  [/cell][cell]  avec  [/cell][cell]  de  [/cell][cell]  un  [/cell][cell]  car  [/cell][cell]  un  [/cell][cell]  de  [/cell][/table][/center]


"

[node name="ScoreHolder" parent="ChallengeContainer" instance=ExtResource("2_nrtjv")]
layout_mode = 2

[connection signal="pressed" from="GeneralContainer/ActionButton" to="." method="_on_button_pressed"]
[connection signal="timer_finished" from="ChallengeContainer/TimerManager" to="." method="_on_timer_manager_timer_finished"]
