[gd_scene load_steps=2 format=3 uid="uid://dcnuwgi276uet"]

[ext_resource type="Script" path="res://scripts/TimerManager.gd" id="1_iy81o"]

[node name="TimerManager" type="Label"]
custom_minimum_size = Vector2(0, 25)
anchors_preset = 15
anchor_right = 1.0
anchor_bottom = 1.0
grow_horizontal = 2
grow_vertical = 2
text = "10 secondes"
horizontal_alignment = 1
vertical_alignment = 1
script = ExtResource("1_iy81o")
TotalTime = 10

[node name="gameTimer" type="Timer" parent="."]
